<?xml version="1.0" encoding="UTF-8" standalone="no"?>
<svg
   xmlns:dc="http://purl.org/dc/elements/1.1/"
   xmlns:cc="http://creativecommons.org/ns#"
   xmlns:rdf="http://www.w3.org/1999/02/22-rdf-syntax-ns#"
   xmlns:svg="http://www.w3.org/2000/svg"
   xmlns="http://www.w3.org/2000/svg"
   id="svg8"
   version="1.1"
   viewBox="0 0 80 80"
   height="80"
   width="80">
  <defs
     id="defs2">
    <clipPath
       id="clipPath4320"
       clipPathUnits="userSpaceOnUse">
      <path
         id="path4322"
         d="M 0,595.28 H 841.89 V 0 H 0 Z" />
    </clipPath>
    <linearGradient
       id="linearGradient4308"
       spreadMethod="pad"
       gradientTransform="matrix(0.6419021,68.699562,68.699562,-0.6419021,185.68848,487.11182)"
       gradientUnits="userSpaceOnUse"
       y2="0"
       x2="1"
       y1="0"
       x1="0">
      <stop
         id="stop4310"
         offset="0"
         style="stop-opacity:1;stop-color:#ffffff" />
      <stop
         id="stop4312"
         offset="1"
         style="stop-opacity:1;stop-color:#464344" />
    </linearGradient>
    <linearGradient
       id="linearGradient4288"
       spreadMethod="pad"
       gradientTransform="matrix(0.4701023,50.312683,50.312683,-0.4701023,224.48291,486.28418)"
       gradientUnits="userSpaceOnUse"
       y2="0"
       x2="1"
       y1="0"
       x1="0">
      <stop
         id="stop4290"
         offset="0"
         style="stop-opacity:1;stop-color:#ffffff" />
      <stop
         id="stop4292"
         offset="1"
         style="stop-opacity:1;stop-color:#464344" />
    </linearGradient>
    <linearGradient
       id="linearGradient4268"
       spreadMethod="pad"
       gradientTransform="matrix(0.4701023,50.312683,50.312683,-0.4701023,144.86719,486.28418)"
       gradientUnits="userSpaceOnUse"
       y2="0"
       x2="1"
       y1="0"
       x1="0">
      <stop
         id="stop4270"
         offset="0"
         style="stop-opacity:1;stop-color:#ffffff" />
      <stop
         id="stop4272"
         offset="1"
         style="stop-opacity:1;stop-color:#464344" />
    </linearGradient>
    <clipPath
       id="clipPath4148"
       clipPathUnits="userSpaceOnUse">
      <path
         id="path4150"
         d="M 0,595.28 H 841.89 V 0 H 0 Z" />
    </clipPath>
    <clipPath
       id="clipPath4130"
       clipPathUnits="userSpaceOnUse">
      <path
         id="path4132"
         d="M 88,569 H 633.999 V 23.001 H 88 Z" />
    </clipPath>
    <clipPath
       id="clipPath4122"
       clipPathUnits="userSpaceOnUse">
      <path
         id="path4124"
         d="M 0,595.28 H 841.89 V 0 H 0 Z" />
    </clipPath>
    <filter
       height="1.12"
       y="-0.059999999"
       width="1.12"
       x="-0.059999999"
       id="filter1207"
       style="color-interpolation-filters:sRGB">
      <feGaussianBlur
         id="feGaussianBlur1209"
         stdDeviation="1.6536459" />
    </filter>
  </defs>
  <metadata
     id="metadata5">
    <rdf:RDF>
      <cc:Work
         rdf:about="">
        <dc:format>image/svg+xml</dc:format>
        <dc:type
           rdf:resource="http://purl.org/dc/dcmitype/StillImage" />
        <dc:title></dc:title>
      </cc:Work>
    </rdf:RDF>
  </metadata>
  <g
     transform="translate(-7.2810568,-73.368379)"
     id="layer1">
    <circle
       transform="matrix(1.079865,0,0,1.079859,-0.43322769,52.070314)"
       style="opacity:0.2;fill:#110606;fill-opacity:1;stroke:none;stroke-width:10;stroke-miterlimit:4;stroke-dasharray:none;stroke-opacity:0.58823529;filter:url(#filter1207)"
       id="circle1089"
       cx="44.185417"
       cy="56.765083"
       r="33.072918" />
    <circle
       r="35.714111"
       cy="111.64037"
       cx="47.28088"
       id="path1080"
       style="opacity:1;fill:#69b1e9;fill-opacity:1;stroke:none;stroke-width:10.79859543;stroke-miterlimit:4;stroke-dasharray:none;stroke-opacity:0.58823529" />
    <g
       transform="matrix(0.56523537,0,0,0.56523537,109.57305,126.91732)"
       id="g5415"
       style="fill:#70ca6c;fill-opacity:1" />
    <g
       transform="matrix(0.56523537,0,0,0.56523537,109.57305,126.91732)"
       id="g5417"
       style="fill:#70ca6c;fill-opacity:1" />
    <g
       transform="matrix(0.56523537,0,0,0.56523537,109.57305,126.91732)"
       id="g5419"
       style="fill:#70ca6c;fill-opacity:1" />
    <g
       transform="matrix(0.56523537,0,0,0.56523537,109.57305,126.91732)"
       id="g5421"
       style="fill:#70ca6c;fill-opacity:1" />
    <g
       transform="matrix(0.56523537,0,0,0.56523537,109.57305,126.91732)"
       id="g5423"
       style="fill:#70ca6c;fill-opacity:1" />
    <g
       transform="matrix(0.56523537,0,0,0.56523537,109.57305,126.91732)"
       id="g5425"
       style="fill:#70ca6c;fill-opacity:1" />
    <g
       transform="matrix(0.56523537,0,0,0.56523537,109.57305,126.91732)"
       id="g5427"
       style="fill:#70ca6c;fill-opacity:1" />
    <g
       transform="matrix(0.56523537,0,0,0.56523537,109.57305,126.91732)"
       id="g5429"
       style="fill:#70ca6c;fill-opacity:1" />
    <g
       transform="matrix(0.56523537,0,0,0.56523537,109.57305,126.91732)"
       id="g5431"
       style="fill:#70ca6c;fill-opacity:1" />
    <g
       transform="matrix(0.56523537,0,0,0.56523537,109.57305,126.91732)"
       id="g5433"
       style="fill:#70ca6c;fill-opacity:1" />
    <g
       transform="matrix(0.56523537,0,0,0.56523537,109.57305,126.91732)"
       id="g5435"
       style="fill:#70ca6c;fill-opacity:1" />
    <g
       transform="matrix(0.56523537,0,0,0.56523537,109.57305,126.91732)"
       id="g5437"
       style="fill:#70ca6c;fill-opacity:1" />
    <g
       transform="matrix(0.56523537,0,0,0.56523537,109.57305,126.91732)"
       id="g5439"
       style="fill:#70ca6c;fill-opacity:1" />
    <g
       transform="matrix(0.56523537,0,0,0.56523537,109.57305,126.91732)"
       id="g5441"
       style="fill:#70ca6c;fill-opacity:1" />
    <g
       transform="matrix(0.56523537,0,0,0.56523537,109.57305,126.91732)"
       id="g5443"
       style="fill:#70ca6c;fill-opacity:1" />
    <g
       style="fill:#ffffff;fill-opacity:1"
       transform="matrix(0.07511122,0,0,0.07511122,28.052586,92.911434)"
       id="g5880">
      <g
         style="fill:#ffffff;fill-opacity:1"
         id="g5805">
        <g
           style="fill:#ffffff;fill-opacity:1"
           id="g5803">
          <path
             style="fill:#ffffff;fill-opacity:1"
             d="M 509.983,146.605 C 484.663,102.837 448.254,66.129 404.695,40.451 359.805,13.988 308.386,0 256,0 203.613,0 152.195,13.988 107.305,40.451 63.745,66.131 27.337,102.838 2.018,146.605 c -2.685,4.641 -2.688,10.361 -0.01,15.005 2.679,4.645 7.632,7.506 12.993,7.506 H 241 V 321.334 H 111.4 c -8.284,0 -15,6.716 -15,15 0,8.284 6.716,15 15,15 H 241 V 497 c 0,8.284 6.716,15 15,15 8.284,0 15,-6.716 15,-15 V 351.334 h 129.6 c 8.284,0 15,-6.716 15,-15 0,-8.284 -6.716,-15 -15,-15 H 270.999 V 169.116 h 226 c 5.361,0 10.314,-2.861 12.994,-7.506 2.678,-4.644 2.674,-10.364 -0.01,-15.005 z"
             id="path5801" />
        </g>
      </g>
      <g
         style="fill:#ffffff;fill-opacity:1"
         id="g5811">
        <g
           style="fill:#ffffff;fill-opacity:1"
           id="g5809">
          <path
             style="fill:#ffffff;fill-opacity:1"
             d="M 111.4,417.733 H 15.001 c -8.284,0 -15,6.716 -15,15 V 497 c 0,8.284 6.716,15 15,15 8.284,0 15,-6.716 15,-15 V 447.733 H 96.4 V 497 c 0,8.284 6.716,15 15,15 8.284,0 15,-6.716 15,-15 v -64.267 c 0,-8.284 -6.716,-15 -15,-15 z"
             id="path5807" />
        </g>
      </g>
      <g
         style="fill:#ffffff;fill-opacity:1"
         id="g5817">
        <g
           style="fill:#ffffff;fill-opacity:1"
           id="g5815">
          <path
             style="fill:#ffffff;fill-opacity:1"
             d="M 496.999,417.733 H 400.6 c -8.284,0 -15,6.716 -15,15 V 497 c 0,8.284 6.716,15 15,15 8.284,0 15,-6.716 15,-15 v -49.267 h 66.399 V 497 c 0,8.284 6.716,15 15,15 8.284,0 15,-6.716 15,-15 v -64.267 c 0,-8.284 -6.716,-15 -15,-15 z"
             id="path5813" />
        </g>
      </g>
      <g
         style="fill:#ffffff;fill-opacity:1"
         id="g5819" />
      <g
         style="fill:#ffffff;fill-opacity:1"
         id="g5821" />
      <g
         style="fill:#ffffff;fill-opacity:1"
         id="g5823" />
      <g
         style="fill:#ffffff;fill-opacity:1"
         id="g5825" />
      <g
         style="fill:#ffffff;fill-opacity:1"
         id="g5827" />
      <g
         style="fill:#ffffff;fill-opacity:1"
         id="g5829" />
      <g
         style="fill:#ffffff;fill-opacity:1"
         id="g5831" />
      <g
         style="fill:#ffffff;fill-opacity:1"
         id="g5833" />
      <g
         style="fill:#ffffff;fill-opacity:1"
         id="g5835" />
      <g
         style="fill:#ffffff;fill-opacity:1"
         id="g5837" />
      <g
         style="fill:#ffffff;fill-opacity:1"
         id="g5839" />
      <g
         style="fill:#ffffff;fill-opacity:1"
         id="g5841" />
      <g
         style="fill:#ffffff;fill-opacity:1"
         id="g5843" />
      <g
         style="fill:#ffffff;fill-opacity:1"
         id="g5845" />
      <g
         style="fill:#ffffff;fill-opacity:1"
         id="g5847" />
    </g>
  </g>
</svg>
