<?xml version="1.0" encoding="UTF-8" standalone="no"?>
<!-- Created with Inkscape (http://www.inkscape.org/) -->

<svg
   xmlns:dc="http://purl.org/dc/elements/1.1/"
   xmlns:cc="http://creativecommons.org/ns#"
   xmlns:rdf="http://www.w3.org/1999/02/22-rdf-syntax-ns#"
   xmlns:svg="http://www.w3.org/2000/svg"
   xmlns="http://www.w3.org/2000/svg"
   xmlns:sodipodi="http://sodipodi.sourceforge.net/DTD/sodipodi-0.dtd"
   xmlns:inkscape="http://www.inkscape.org/namespaces/inkscape"
   width="80"
   height="80"
   viewBox="0 0 80 80"
   version="1.1"
   id="svg8"
   inkscape:version="0.92.2 5c3e80d, 2017-08-06"
   sodipodi:docname="marker-WILD_SPOT-private.svg">
  <defs
     id="defs2">
    <clipPath
       clipPathUnits="userSpaceOnUse"
       id="clipPath4320">
      <path
         d="M 0,595.28 H 841.89 V 0 H 0 Z"
         id="path4322"
         inkscape:connector-curvature="0" />
    </clipPath>
    <linearGradient
       x1="0"
       y1="0"
       x2="1"
       y2="0"
       gradientUnits="userSpaceOnUse"
       gradientTransform="matrix(0.6419021,68.699562,68.699562,-0.6419021,185.68848,487.11182)"
       spreadMethod="pad"
       id="linearGradient4308">
      <stop
         style="stop-opacity:1;stop-color:#ffffff"
         offset="0"
         id="stop4310" />
      <stop
         style="stop-opacity:1;stop-color:#464344"
         offset="1"
         id="stop4312" />
    </linearGradient>
    <linearGradient
       x1="0"
       y1="0"
       x2="1"
       y2="0"
       gradientUnits="userSpaceOnUse"
       gradientTransform="matrix(0.4701023,50.312683,50.312683,-0.4701023,224.48291,486.28418)"
       spreadMethod="pad"
       id="linearGradient4288">
      <stop
         style="stop-opacity:1;stop-color:#ffffff"
         offset="0"
         id="stop4290" />
      <stop
         style="stop-opacity:1;stop-color:#464344"
         offset="1"
         id="stop4292" />
    </linearGradient>
    <linearGradient
       x1="0"
       y1="0"
       x2="1"
       y2="0"
       gradientUnits="userSpaceOnUse"
       gradientTransform="matrix(0.4701023,50.312683,50.312683,-0.4701023,144.86719,486.28418)"
       spreadMethod="pad"
       id="linearGradient4268">
      <stop
         style="stop-opacity:1;stop-color:#ffffff"
         offset="0"
         id="stop4270" />
      <stop
         style="stop-opacity:1;stop-color:#464344"
         offset="1"
         id="stop4272" />
    </linearGradient>
    <clipPath
       clipPathUnits="userSpaceOnUse"
       id="clipPath4148">
      <path
         d="M 0,595.28 H 841.89 V 0 H 0 Z"
         id="path4150"
         inkscape:connector-curvature="0" />
    </clipPath>
    <clipPath
       clipPathUnits="userSpaceOnUse"
       id="clipPath4130">
      <path
         d="M 88,569 H 633.999 V 23.001 H 88 Z"
         id="path4132"
         inkscape:connector-curvature="0" />
    </clipPath>
    <clipPath
       clipPathUnits="userSpaceOnUse"
       id="clipPath4122">
      <path
         d="M 0,595.28 H 841.89 V 0 H 0 Z"
         id="path4124"
         inkscape:connector-curvature="0" />
    </clipPath>
    <filter
       inkscape:collect="always"
       style="color-interpolation-filters:sRGB"
       id="filter1207"
       x="-0.059999999"
       width="1.12"
       y="-0.059999999"
       height="1.12">
      <feGaussianBlur
         inkscape:collect="always"
         stdDeviation="1.6536459"
         id="feGaussianBlur1209" />
    </filter>
  </defs>
  <sodipodi:namedview
     id="base"
     pagecolor="#ffffff"
     bordercolor="#666666"
     borderopacity="1.0"
     inkscape:pageopacity="0.0"
     inkscape:pageshadow="2"
     inkscape:zoom="3.6203867"
     inkscape:cx="-37.948174"
     inkscape:cy="42.496488"
     inkscape:document-units="px"
     inkscape:current-layer="layer1"
     showgrid="true"
     inkscape:window-width="1864"
     inkscape:window-height="1155"
     inkscape:window-x="56"
     inkscape:window-y="1"
     inkscape:window-maximized="1"
     units="px"
     showborder="true"
     inkscape:pagecheckerboard="false">
    <inkscape:grid
       type="xygrid"
       id="grid3699"
       originx="-7.2810562"
       originy="-202.46497" />
  </sodipodi:namedview>
  <metadata
     id="metadata5">
    <rdf:RDF>
      <cc:Work
         rdf:about="">
        <dc:format>image/svg+xml</dc:format>
        <dc:type
           rdf:resource="http://purl.org/dc/dcmitype/StillImage" />
        <dc:title></dc:title>
      </cc:Work>
    </rdf:RDF>
  </metadata>
  <g
     inkscape:label="Layer 1"
     inkscape:groupmode="layer"
     id="layer1"
     transform="translate(-7.2810568,-73.368379)">
    <g
       id="g863">
      <circle
         transform="matrix(1.079865,0,0,1.079859,-0.43322769,52.070314)"
         style="opacity:0.2;fill:#110606;fill-opacity:1;stroke:none;stroke-width:10;stroke-miterlimit:4;stroke-dasharray:none;stroke-opacity:0.58823529;filter:url(#filter1207)"
         id="circle1089"
         cx="44.185417"
         cy="56.765083"
         r="33.072918" />
      <circle
         r="35.714111"
         cy="111.64037"
         cx="47.28088"
         id="path1080"
         style="opacity:1;fill:#ffffff;fill-opacity:1;stroke:none;stroke-width:10.79859543;stroke-miterlimit:4;stroke-dasharray:none;stroke-opacity:0.58823529" />
    </g>
    <path
       inkscape:export-ydpi="25.878572"
       inkscape:export-xdpi="25.878572"
       inkscape:export-filename="/Users/lj/Downloads/markers/icon-WILD_SPOT.png"
       inkscape:connector-curvature="0"
       id="path4752"
       d="m 52.120145,91.61297 -0.429845,0.301453 -2.097381,1.494438 c -0.341723,0.259794 -0.665246,0.534447 -1.000584,0.801761 l -1.000567,0.808167 c -0.333391,0.270651 -0.641416,0.579072 -0.962096,0.865906 l -0.949234,0.872294 c -0.326321,0.284495 -0.602398,0.597263 -0.904384,0.897946 l -0.891515,0.917224 -0.224617,0.224531 -0.109115,0.115427 c -0.0504,0.05103 -0.08668,0.09353 -0.128381,0.141089 -0.151947,0.182539 -0.271577,0.360606 -0.397561,0.538806 l -0.634985,0.923598 c -0.738297,0.58085 -1.474454,1.1759 -2.18076,1.79593 -0.05369,-0.0387 -0.106918,-0.0798 -0.160362,-0.12843 -0.270146,-0.24259 -0.509225,-0.57724 -0.731187,-0.92361 -0.222724,-0.34866 -0.429314,-0.71502 -0.660647,-1.08397 -0.235935,-0.366975 -0.479786,-0.745809 -0.859451,-1.077546 l -0.18603,-0.166673 -0.205303,0.141089 -0.66065,0.449007 -0.628574,0.493873 c -0.405809,0.33761 -0.79818,0.68014 -1.186593,1.02623 -0.218516,0.19532 -0.440099,0.38717 -0.660647,0.57724 2.24e-4,-0.0291 -1.55e-4,-0.0561 0,-0.0835 -1.453803,0.73377 -2.82787,1.7369 -4.175483,2.82216 l -0.256513,0.14113 c -0.455359,0.25293 -0.912315,0.50719 -1.359769,0.78251 -0.226468,0.13128 -0.446394,0.27397 -0.667072,0.42322 l -0.333474,0.21801 c -0.108106,0.0749 -0.208965,0.15373 -0.314413,0.23084 l -0.31433,0.23725 -0.07683,0.0577 -0.04481,0.0333 -0.03997,0.0333 -0.147444,0.12182 c -0.204503,0.16468 -0.405514,0.33634 -0.60291,0.50673 -0.397898,0.33793 -0.78482,0.68758 -1.173764,1.03265 -0.280328,0.2502 -0.564866,0.496 -0.846652,0.74401 -0.844714,0.64897 -1.651643,1.40306 -2.418072,2.01402 -0.01347,0.01 -0.02652,0.0226 -0.03997,0.0333 -0.04082,0.0312 -0.07629,0.0607 -0.115423,0.0899 -0.05242,0.0416 -0.107173,0.0768 -0.160405,0.11542 -0.0093,0.008 -0.01809,0.0134 -0.02693,0.0206 l -0.442582,0.32073 c -0.05369,0.0387 -0.105786,0.0793 -0.160446,0.11546 -0.212877,0.14715 -0.424875,0.2919 -0.647813,0.42327 -0.219061,0.13776 -0.443338,0.27208 -0.673459,0.39129 l -0.340038,0.18603 -0.352663,0.16041 c -0.467967,0.22197 -0.969539,0.36145 -1.481633,0.45535 0.513613,-0.07 1.024708,-0.18843 1.50728,-0.39129 l 0.365665,-0.14744 0.352663,-0.17324 c 0.238629,-0.10895 0.467239,-0.23446 0.692714,-0.36558 0.23013,-0.12573 0.447436,-0.26291 0.667055,-0.40416 0.223017,-0.1371 0.440275,-0.2872 0.654221,-0.4362 0.216875,-0.14575 0.425897,-0.29956 0.634987,-0.45535 0.211278,-0.15325 0.423768,-0.30785 0.62857,-0.46822 0.693488,-0.53127 1.362366,-1.08535 2.033241,-1.64198 0.496003,-0.344 0.988132,-0.70828 1.47522,-1.09039 -0.0948,0.0345 -0.188092,0.0628 -0.28218,0.10252 l 0.39756,-0.32708 c 0.199412,-0.16461 0.399496,-0.33024 0.602922,-0.48746 l 0.154093,-0.11546 0.03997,-0.0333 0.03324,-0.027 0.08353,-0.0578 0.314371,-0.22448 c 0.106241,-0.0747 0.213508,-0.15372 0.320724,-0.22462 l 0.205303,-0.12839 c -0.619143,0.51853 -1.241922,1.03017 -1.866475,1.52012 0.419148,-0.14737 0.844797,-0.23258 1.276387,-0.22462 0.238798,1.212 -0.243342,2.49145 -0.699127,3.46997 0.356955,-0.39014 0.915408,-0.83126 1.212248,-1.18017 -0.763776,1.74229 -1.64763,3.53386 -2.244901,5.31718 1.498057,-0.29825 5.198663,-8.09365 6.189506,-3.43147 0.244521,-0.54468 0.745302,-1.03777 0.981326,-1.57143 -0.04082,0.89976 -0.02903,1.82849 0.03324,2.71313 0.80534,-0.34868 1.101415,-1.55296 1.699709,-2.25132 0.04351,1.10988 -0.120515,2.23669 0.500262,3.02739 0.390449,-1.31486 2.109959,-7.00714 4.38076,-4.3615 -0.341259,-0.62781 -0.194952,-1.46931 -0.224491,-1.99474 0.215233,0.0987 0.507728,0.17066 0.801766,0.26946 0.804542,1.69652 -2.798486,5.05225 -3.32886,6.58076 1.501646,-0.14714 2.186664,-1.74794 3.271132,-2.70027 0.1931,2.79675 3.827618,-1.01599 5.124781,-1.52653 0.273766,1.58271 -0.579071,3.07409 -0.942864,4.50903 1.673804,-0.88257 1.52115,-3.43816 3.059476,-4.50903 -0.04351,0.89359 -0.03618,1.81156 0.02063,2.69386 1.321528,-0.10728 3.14926,-3.46818 4.528267,-4.55391 0.11193,1.07678 0.288829,2.21743 0.76326,3.03382 0.453071,-1.5812 -0.775055,-5.10992 1.276394,-4.54754 1.458276,0.39971 2.489649,3.57387 4.380756,4.02157 0.171472,-1.50114 -2.559701,-5.07115 -3.739356,-5.88163 -2.848852,-1.95729 -0.964673,1.96294 -3.874056,2.28981 0.04166,-0.36803 -0.104566,-0.84255 -0.07683,-1.21225 -0.359859,0.0949 -0.794819,-0.0135 -1.205824,0.12178 -0.169915,-1.12887 4.84e-4,-2.39217 0.179718,-3.45715 -0.305955,0.15536 -0.854335,0.1355 -1.250729,0.36558 -1.925915,-2.62929 0.669579,-5.881469 1.699711,-8.511363 0.0643,-0.0504 0.12754,-0.104067 0.192342,-0.154134 l 1.63557,-1.167348 0.154094,0.545229 c 0.122323,0.351147 0.269472,0.692445 0.404125,1.039064 0.146224,0.341301 0.331076,0.660892 0.493871,0.99416 0.17046,0.328719 0.371977,0.636783 0.558025,0.955685 0.190869,0.315466 0.411363,0.612404 0.615744,0.917193 0.207364,0.302715 0.431224,0.584201 0.647807,0.878728 0.217674,0.2927 0.450042,0.572648 0.673472,0.859464 l 0.679889,0.846656 0.166675,0.211616 0.160404,0.20531 0.327078,0.43615 c 0.227983,0.28562 0.411867,0.57571 0.615745,0.86589 0.203703,0.28529 0.377825,0.59934 0.57082,0.89796 0.191289,0.30116 0.368315,0.61625 0.551594,0.92362 0.361457,0.61983 0.715543,1.24945 1.071137,1.87929 l 0.538795,0.94285 0.558028,0.9236 c -0.800962,1.72049 -0.963558,4.99336 -0.718361,6.83093 0.868966,-0.80921 1.053427,-2.07225 1.237896,-3.16852 0.216663,0.52106 0.773527,1.02958 0.974929,1.42391 0.0223,-0.4523 0.238629,-0.79688 0.307722,-1.15452 0.886926,1.45263 2.618184,2.55096 4.329451,2.16152 -0.279994,-0.8559 -1.20954,-1.60791 -1.911381,-2.20642 0.532962,0.41735 1.254062,0.78541 1.860056,0.93002 -2.339931,-2.74832 -2.785933,-3.16904 -2.552767,-6.8309 0.171177,-0.22822 0.340924,-0.45524 0.519505,-0.64781 0.121188,-0.13293 0.253357,-0.24229 0.378289,-0.28858 0.121525,-0.0481 0.234422,-0.0374 0.371935,0.0448 0.273134,0.15885 0.516165,0.4785 0.731187,0.7825 0.214014,0.31467 0.411112,0.64833 0.596498,0.98776 0.198948,0.35111 0.402062,0.67424 0.602913,1.01342 0.217128,0.32973 0.450037,0.64883 0.673472,0.97492 0.227352,0.32337 0.475432,0.62832 0.711961,0.94286 0.233034,0.31623 0.489276,0.61394 0.737605,0.9172 l 0.378288,0.44901 0.391291,0.44258 c 0.26657,0.28812 0.52158,0.59034 0.801749,0.86585 0.276122,0.27903 0.539038,0.56163 0.821009,0.83385 l 0.865877,0.79533 0.917205,0.74402 -0.879313,-0.78265 -0.827412,-0.82739 -0.78892,-0.8659 c -0.268968,-0.28268 -0.508245,-0.59626 -0.763252,-0.89156 l -0.378289,-0.44899 -0.359184,-0.46182 c -0.236652,-0.30968 -0.484907,-0.60831 -0.705548,-0.93004 -0.223523,-0.31886 -0.454573,-0.63138 -0.66705,-0.95569 -0.207407,-0.32652 -0.42665,-0.65062 -0.628583,-0.98132 l -0.564634,-1.02023 c -0.182286,-0.3509 -0.370968,-0.6953 -0.590071,-1.03265 -0.113573,-0.16726 -0.22849,-0.33558 -0.365582,-0.49386 -0.133684,-0.15869 -0.293036,-0.31282 -0.493858,-0.43615 -0.05432,-0.029 -0.100694,-0.0618 -0.160447,-0.0835 -0.06202,-0.0185 -0.121776,-0.0416 -0.185947,-0.051 -0.06707,-0.003 -0.138943,-0.008 -0.205302,0 -0.0648,0.0134 -0.132927,0.0235 -0.192342,0.0448 -0.2449,0.0902 -0.411868,0.24258 -0.558021,0.39128 -0.292236,0.3039 -0.518763,0.62419 -0.76326,0.92362 -0.05206,0.0646 -0.101493,0.1296 -0.154134,0.19234 -0.661951,0.34748 -1.324605,0.66477 -1.751015,1.30845 -0.21094,0.0689 -0.425278,0.11357 -0.647824,0.13474 l -0.448969,-0.78929 -0.519505,-0.94286 c -0.341216,-0.63523 -0.680389,-1.27588 -1.03264,-1.91136 -0.183338,-0.31442 -0.359226,-0.63268 -0.551594,-0.94286 -0.19554,-0.30991 -0.364824,-0.62525 -0.577246,-0.93004 -0.207365,-0.30284 -0.408713,-0.62266 -0.628565,-0.90437 l -0.320725,-0.436104 -0.166675,-0.22462 -0.166674,-0.21165 -0.667055,-0.85307 c -0.217565,-0.285026 -0.444908,-0.564444 -0.65425,-0.853045 -0.208669,-0.289207 -0.43122,-0.570804 -0.628569,-0.865885 -0.193396,-0.297119 -0.407661,-0.589327 -0.590094,-0.89155 -0.175216,-0.305913 -0.36558,-0.598045 -0.525943,-0.910783 -0.151946,-0.315971 -0.324933,-0.627013 -0.461816,-0.949266 -0.124721,-0.327078 -0.264423,-0.65114 -0.378288,-0.981337 L 52.268097,92.139314 52.120653,91.613375 Z M 37.54115,99.777968 c 0.192636,0.214945 0.371345,0.485852 0.538798,0.756862 0.217084,0.35367 0.423014,0.7258 0.65422,1.09679 0.233622,0.36901 0.480789,0.74401 0.840234,1.07756 0.03408,0.0315 0.06711,0.0606 0.102502,0.0899 -0.51515,0.47486 -1.011849,0.96263 -1.468803,1.47523 -0.07342,-0.14249 -0.149507,-0.28901 -0.237156,-0.44259 -0.661384,1.73537 -1.600158,3.14079 -2.834977,4.31661 -0.156661,-1.12911 0.168567,-2.16022 0.166673,-3.27114 -0.675534,0.27713 -1.122969,0.0753 -1.718979,0.70553 0.451918,-0.95696 0.608579,-2.0898 0.660655,-3.17491 0.368946,-0.2972 0.734701,-0.5933 1.090384,-0.89797 0.394573,-0.33794 0.794041,-0.66655 1.19299,-0.98774 l 0.602921,-0.46823 z"
       style="fill:#000000;fill-opacity:1;fill-rule:nonzero;stroke:none;stroke-width:0.24803503;stroke-opacity:1" />
    <path
       inkscape:export-ydpi="25.878572"
       inkscape:export-xdpi="25.878572"
       inkscape:export-filename="/Users/lj/Downloads/markers/icon-WILD_SPOT.png"
       style="fill:#000000;fill-opacity:1;stroke:none;stroke-width:0.47259805;stroke-opacity:1"
       inkscape:connector-curvature="0"
       id="path4754"
       d="m 47.671355,117.67124 c -0.993342,0.0113 -1.056932,0.0345 -1.137326,0.0814 -0.332129,0.20631 -0.313446,-0.0298 -0.313446,4.58417 0,3.73694 -0.01725,4.16636 -0.08133,4.16636 -0.150769,0 -0.377321,0.15747 -0.452597,0.31346 -0.0704,0.12577 -0.08466,0.3067 -0.06956,1.05613 l 0.02399,0.9052 0.162593,0.15097 c 0.161077,0.14068 0.177951,0.13925 0.731153,0.13925 h 0.55707 l 0.01262,-0.38291 c 0.0054,-0.84002 0.279866,-1.4986 0.893616,-2.1122 0.628556,-0.62856 1.285028,-0.8986 2.170224,-0.8936 1.639556,0.006 2.994205,1.37124 2.994205,3.0058 v 0.38291 h 4.885886 4.885912 l 0.01262,-0.46423 c 0.01599,-0.81478 0.324344,-1.497 0.963236,-2.10057 0.593358,-0.5684 1.260573,-0.829 2.100588,-0.824 1.639564,0.006 2.994225,1.35965 2.994225,2.9942 v 0.39465 h 0.998067 1.009669 l 0.162636,-0.1392 0.162676,-0.15097 0.01136,-0.90522 c 0.02147,-1.00576 -0.0075,-1.14745 -0.278645,-1.28822 -0.135832,-0.0753 -0.143868,-0.084 -0.17408,-0.59189 -0.03156,-0.57836 -0.146183,-1.03352 -0.417801,-1.56674 -0.306756,-0.6136 -0.785625,-1.03265 -1.706003,-1.48548 -0.548174,-0.27667 -1.316574,-0.56593 -1.729225,-0.66155 l -0.255251,-0.0577 -1.624764,-1.86848 c -0.894895,-1.02517 -1.731048,-1.96178 -1.856863,-2.07735 -0.281508,-0.25151 -0.53426,-0.3881 -0.951643,-0.49909 -0.291733,-0.0804 -0.94353,-0.0892 -7.984564,-0.1044 -3.777144,-0.008 -5.703009,-0.0113 -6.696351,0 z m 0.093,1.19534 h 2.263092 c 1.318055,-1.5e-4 2.31506,0.0172 2.3907,0.047 0.266613,0.10063 0.290091,0.2054 0.290091,1.88009 0,1.74016 -0.01725,1.79632 -0.348244,1.89166 -0.1259,0.0422 -0.905187,0.0448 -2.413944,0.0362 l -2.228235,-0.0113 -0.127751,-0.13921 -0.116053,-0.13928 v -1.63674 -1.63638 l 0.139196,-0.15096 0.150895,-0.1392 z m 6.870439,0 c 0.357123,-0.006 0.832661,9.6e-4 1.473896,0 h 2.286264 l 0.150894,0.1392 0.139156,0.15099 v 1.63638 1.63635 l -0.116054,0.13924 -0.127793,0.13919 h -2.344313 -2.332695 l -0.139196,-0.13919 -0.139197,-0.13924 -0.02399,-1.50868 c -0.0101,-0.97584 0.01178,-1.57522 0.04701,-1.70604 0.0717,-0.27148 0.05491,-0.33208 1.125706,-0.34824 z m 6.615112,0 c 0.844463,0.0172 0.895946,0.0215 1.137324,0.15099 0.367306,0.19629 0.434506,0.28163 1.334636,1.35785 l 0.812379,0.97485 -0.522232,0.024 c -0.28702,0.0148 -0.558022,0.0493 -0.603471,0.0697 -0.145887,0.0703 -0.198991,0.25293 -0.208795,0.76595 l -0.01263,0.49907 -1.33461,0.0113 c -1.483802,0.0148 -1.666675,-9.4e-4 -1.787236,-0.23218 -0.105531,-0.2011 -0.105531,-3.17936 0,-3.36558 0.130698,-0.23627 0.238082,-0.26556 1.183745,-0.25525 z m 7.299833,4.74665 c 0.03114,-0.006 0.06809,0.002 0.116095,0.0113 0.08521,0.0172 0.257396,0.0789 0.38296,0.13919 0.372187,0.19113 0.859018,0.74692 0.974848,1.11413 0.04536,0.15078 -0.113359,0.22051 -0.510588,0.22051 -0.653791,-0.006 -1.067708,-0.42037 -1.067708,-1.07933 0,-0.29422 0.01599,-0.39062 0.104444,-0.40614 z m -18.673196,2.71571 c -0.07283,0.006 -0.152704,0.022 -0.220492,0.0362 -0.955572,0.19626 -1.730669,1.01037 -1.891688,1.99615 -0.206312,1.26239 0.685334,2.49587 1.972942,2.72729 0.985772,0.18111 2.027362,-0.34156 2.495153,-1.24178 0.226257,-0.42233 0.28016,-0.75301 0.255251,-1.31143 -0.02652,-0.41228 -0.0481,-0.51523 -0.20888,-0.84718 -0.196298,-0.39736 -0.532075,-0.78029 -0.858796,-0.98648 -0.431312,-0.26859 -1.034416,-0.41421 -1.543527,-0.37134 z m 15.99232,0 c -0.141722,0.006 -0.288535,0.0148 -0.429579,0.0469 -1.201944,0.27145 -2.03485,1.50711 -1.833661,2.70408 0.175932,1.03595 0.971794,1.83674 2.007741,2.00772 0.457861,0.0753 0.905015,0.0148 1.357847,-0.19739 0.638811,-0.3018 1.075408,-0.80515 1.276604,-1.47391 0.140795,-0.45258 0.119673,-1.13413 -0.04705,-1.56674 -0.365707,-0.95059 -1.340286,-1.55654 -2.332703,-1.5203 z m -15.736986,1.39263 c 0.05824,9.5e-4 0.121441,0.0172 0.232192,0.047 0.447593,0.12064 0.731157,0.49413 0.731157,0.95166 0,0.7344 -0.762093,1.20213 -1.415859,0.87039 -0.276669,-0.14067 -0.545477,-0.56363 -0.545477,-0.87039 0,-0.18596 0.114455,-0.47231 0.255251,-0.63832 0.171092,-0.19629 0.295855,-0.26964 0.522227,-0.32481 0.108138,-0.0261 0.162172,-0.0374 0.220451,-0.0362 z m 15.841456,0 c 0.05828,9.5e-4 0.121228,0.0172 0.23219,0.047 0.447597,0.12064 0.731149,0.49413 0.731149,0.95166 0,0.7344 -0.762098,1.20213 -1.415864,0.87039 -0.276669,-0.14067 -0.545464,-0.56363 -0.545464,-0.87039 0,-0.18596 0.114455,-0.47231 0.255209,-0.63832 0.171092,-0.19629 0.295855,-0.26964 0.522232,-0.32481 0.108138,-0.0261 0.162172,-0.0374 0.22045,-0.0362 z" />
    <path
       inkscape:export-ydpi="25.878572"
       inkscape:export-xdpi="25.878572"
       inkscape:export-filename="/Users/lj/Downloads/markers/icon-WILD_SPOT.png"
       inkscape:connector-curvature="0"
       id="path4756"
       d="M 44.176914,122.9591 H 27.011992"
       style="fill:#69b1e9;fill-opacity:1;stroke:#000000;stroke-width:0.48143014px;stroke-linecap:round;stroke-linejoin:miter;stroke-opacity:1" />
    <path
       inkscape:export-ydpi="25.878572"
       inkscape:export-xdpi="25.878572"
       inkscape:export-filename="/Users/lj/Downloads/markers/icon-WILD_SPOT.png"
       inkscape:connector-curvature="0"
       id="path4758"
       d="M 44.176914,127.68509 H 34.10096"
       style="fill:#69b1e9;fill-opacity:1;stroke:#000000;stroke-width:0.48794898px;stroke-linecap:round;stroke-linejoin:miter;stroke-opacity:1" />
    <path
       inkscape:export-ydpi="25.878572"
       inkscape:export-xdpi="25.878572"
       inkscape:export-filename="/Users/lj/Downloads/markers/icon-WILD_SPOT.png"
       inkscape:connector-curvature="0"
       id="path4762"
       d="M 44.176914,118.23311 H 19.912939"
       style="fill:#000000;fill-opacity:1;stroke:#000000;stroke-width:0.58974689;stroke-linecap:round;stroke-linejoin:miter;stroke-miterlimit:4;stroke-dasharray:none;stroke-opacity:1" />
    <g
       style="fill:#70ca6c;fill-opacity:1"
       id="g5415"
       transform="matrix(0.56523537,0,0,0.56523537,109.57305,126.91732)" />
    <g
       style="fill:#70ca6c;fill-opacity:1"
       id="g5417"
       transform="matrix(0.56523537,0,0,0.56523537,109.57305,126.91732)" />
    <g
       style="fill:#70ca6c;fill-opacity:1"
       id="g5419"
       transform="matrix(0.56523537,0,0,0.56523537,109.57305,126.91732)" />
    <g
       style="fill:#70ca6c;fill-opacity:1"
       id="g5421"
       transform="matrix(0.56523537,0,0,0.56523537,109.57305,126.91732)" />
    <g
       style="fill:#70ca6c;fill-opacity:1"
       id="g5423"
       transform="matrix(0.56523537,0,0,0.56523537,109.57305,126.91732)" />
    <g
       style="fill:#70ca6c;fill-opacity:1"
       id="g5425"
       transform="matrix(0.56523537,0,0,0.56523537,109.57305,126.91732)" />
    <g
       style="fill:#70ca6c;fill-opacity:1"
       id="g5427"
       transform="matrix(0.56523537,0,0,0.56523537,109.57305,126.91732)" />
    <g
       style="fill:#70ca6c;fill-opacity:1"
       id="g5429"
       transform="matrix(0.56523537,0,0,0.56523537,109.57305,126.91732)" />
    <g
       style="fill:#70ca6c;fill-opacity:1"
       id="g5431"
       transform="matrix(0.56523537,0,0,0.56523537,109.57305,126.91732)" />
    <g
       style="fill:#70ca6c;fill-opacity:1"
       id="g5433"
       transform="matrix(0.56523537,0,0,0.56523537,109.57305,126.91732)" />
    <g
       style="fill:#70ca6c;fill-opacity:1"
       id="g5435"
       transform="matrix(0.56523537,0,0,0.56523537,109.57305,126.91732)" />
    <g
       style="fill:#70ca6c;fill-opacity:1"
       id="g5437"
       transform="matrix(0.56523537,0,0,0.56523537,109.57305,126.91732)" />
    <g
       style="fill:#70ca6c;fill-opacity:1"
       id="g5439"
       transform="matrix(0.56523537,0,0,0.56523537,109.57305,126.91732)" />
    <g
       style="fill:#70ca6c;fill-opacity:1"
       id="g5441"
       transform="matrix(0.56523537,0,0,0.56523537,109.57305,126.91732)" />
    <g
       style="fill:#70ca6c;fill-opacity:1"
       id="g5443"
       transform="matrix(0.56523537,0,0,0.56523537,109.57305,126.91732)" />
  </g>
</svg>
