<?xml version="1.0" encoding="UTF-8" standalone="no"?>
<!-- Created with Inkscape (http://www.inkscape.org/) -->

<svg
   xmlns:dc="http://purl.org/dc/elements/1.1/"
   xmlns:cc="http://creativecommons.org/ns#"
   xmlns:rdf="http://www.w3.org/1999/02/22-rdf-syntax-ns#"
   xmlns:svg="http://www.w3.org/2000/svg"
   xmlns="http://www.w3.org/2000/svg"
   xmlns:sodipodi="http://sodipodi.sourceforge.net/DTD/sodipodi-0.dtd"
   xmlns:inkscape="http://www.inkscape.org/namespaces/inkscape"
   width="80"
   height="80"
   viewBox="0 0 80 80"
   version="1.1"
   id="svg8"
   inkscape:version="0.92.2 5c3e80d, 2017-08-06"
   sodipodi:docname="marker-CAMPING-friends.svg">
  <defs
     id="defs2">
    <clipPath
       clipPathUnits="userSpaceOnUse"
       id="clipPath4320">
      <path
         d="M 0,595.28 H 841.89 V 0 H 0 Z"
         id="path4322"
         inkscape:connector-curvature="0" />
    </clipPath>
    <linearGradient
       x1="0"
       y1="0"
       x2="1"
       y2="0"
       gradientUnits="userSpaceOnUse"
       gradientTransform="matrix(0.6419021,68.699562,68.699562,-0.6419021,185.68848,487.11182)"
       spreadMethod="pad"
       id="linearGradient4308">
      <stop
         style="stop-opacity:1;stop-color:#ffffff"
         offset="0"
         id="stop4310" />
      <stop
         style="stop-opacity:1;stop-color:#464344"
         offset="1"
         id="stop4312" />
    </linearGradient>
    <linearGradient
       x1="0"
       y1="0"
       x2="1"
       y2="0"
       gradientUnits="userSpaceOnUse"
       gradientTransform="matrix(0.4701023,50.312683,50.312683,-0.4701023,224.48291,486.28418)"
       spreadMethod="pad"
       id="linearGradient4288">
      <stop
         style="stop-opacity:1;stop-color:#ffffff"
         offset="0"
         id="stop4290" />
      <stop
         style="stop-opacity:1;stop-color:#464344"
         offset="1"
         id="stop4292" />
    </linearGradient>
    <linearGradient
       x1="0"
       y1="0"
       x2="1"
       y2="0"
       gradientUnits="userSpaceOnUse"
       gradientTransform="matrix(0.4701023,50.312683,50.312683,-0.4701023,144.86719,486.28418)"
       spreadMethod="pad"
       id="linearGradient4268">
      <stop
         style="stop-opacity:1;stop-color:#ffffff"
         offset="0"
         id="stop4270" />
      <stop
         style="stop-opacity:1;stop-color:#464344"
         offset="1"
         id="stop4272" />
    </linearGradient>
    <clipPath
       clipPathUnits="userSpaceOnUse"
       id="clipPath4148">
      <path
         d="M 0,595.28 H 841.89 V 0 H 0 Z"
         id="path4150"
         inkscape:connector-curvature="0" />
    </clipPath>
    <clipPath
       clipPathUnits="userSpaceOnUse"
       id="clipPath4130">
      <path
         d="M 88,569 H 633.999 V 23.001 H 88 Z"
         id="path4132"
         inkscape:connector-curvature="0" />
    </clipPath>
    <clipPath
       clipPathUnits="userSpaceOnUse"
       id="clipPath4122">
      <path
         d="M 0,595.28 H 841.89 V 0 H 0 Z"
         id="path4124"
         inkscape:connector-curvature="0" />
    </clipPath>
    <filter
       inkscape:collect="always"
       style="color-interpolation-filters:sRGB"
       id="filter1207"
       x="-0.059999999"
       width="1.12"
       y="-0.059999999"
       height="1.12">
      <feGaussianBlur
         inkscape:collect="always"
         stdDeviation="1.6536459"
         id="feGaussianBlur1209" />
    </filter>
  </defs>
  <sodipodi:namedview
     id="base"
     pagecolor="#ffffff"
     bordercolor="#666666"
     borderopacity="1.0"
     inkscape:pageopacity="0.0"
     inkscape:pageshadow="2"
     inkscape:zoom="5.12"
     inkscape:cx="-21.714334"
     inkscape:cy="50.616146"
     inkscape:document-units="px"
     inkscape:current-layer="layer1"
     showgrid="true"
     inkscape:window-width="1864"
     inkscape:window-height="1155"
     inkscape:window-x="53"
     inkscape:window-y="3"
     inkscape:window-maximized="0"
     units="px"
     showborder="true"
     inkscape:pagecheckerboard="false">
    <inkscape:grid
       type="xygrid"
       id="grid3699"
       originx="-7.2810562"
       originy="-202.46497" />
  </sodipodi:namedview>
  <metadata
     id="metadata5">
    <rdf:RDF>
      <cc:Work
         rdf:about="">
        <dc:format>image/svg+xml</dc:format>
        <dc:type
           rdf:resource="http://purl.org/dc/dcmitype/StillImage" />
        <dc:title></dc:title>
      </cc:Work>
    </rdf:RDF>
  </metadata>
  <g
     inkscape:label="Layer 1"
     inkscape:groupmode="layer"
     id="layer1"
     transform="translate(-7.2810568,-73.368379)">
    <g
       id="g908">
      <circle
         transform="matrix(1.079865,0,0,1.079859,-0.43322769,52.070314)"
         style="opacity:0.2;fill:#110606;fill-opacity:1;stroke:none;stroke-width:10;stroke-miterlimit:4;stroke-dasharray:none;stroke-opacity:0.58823529;filter:url(#filter1207)"
         id="circle1089"
         cx="44.185417"
         cy="56.765083"
         r="33.072918" />
      <circle
         r="35.714111"
         cy="111.64037"
         cx="47.28088"
         id="path1080"
         style="opacity:1;fill:#ffffff;fill-opacity:1;stroke:none;stroke-width:10.79859543;stroke-miterlimit:4;stroke-dasharray:none;stroke-opacity:0.58823529" />
    </g>
    <g
       style="fill:#70ca6c;fill-opacity:1"
       id="g5415"
       transform="matrix(0.56523537,0,0,0.56523537,109.57305,126.91732)" />
    <g
       style="fill:#70ca6c;fill-opacity:1"
       id="g5417"
       transform="matrix(0.56523537,0,0,0.56523537,109.57305,126.91732)" />
    <g
       style="fill:#70ca6c;fill-opacity:1"
       id="g5419"
       transform="matrix(0.56523537,0,0,0.56523537,109.57305,126.91732)" />
    <g
       style="fill:#70ca6c;fill-opacity:1"
       id="g5421"
       transform="matrix(0.56523537,0,0,0.56523537,109.57305,126.91732)" />
    <g
       style="fill:#70ca6c;fill-opacity:1"
       id="g5423"
       transform="matrix(0.56523537,0,0,0.56523537,109.57305,126.91732)" />
    <g
       style="fill:#70ca6c;fill-opacity:1"
       id="g5425"
       transform="matrix(0.56523537,0,0,0.56523537,109.57305,126.91732)" />
    <g
       style="fill:#70ca6c;fill-opacity:1"
       id="g5427"
       transform="matrix(0.56523537,0,0,0.56523537,109.57305,126.91732)" />
    <g
       style="fill:#70ca6c;fill-opacity:1"
       id="g5429"
       transform="matrix(0.56523537,0,0,0.56523537,109.57305,126.91732)" />
    <g
       style="fill:#70ca6c;fill-opacity:1"
       id="g5431"
       transform="matrix(0.56523537,0,0,0.56523537,109.57305,126.91732)" />
    <g
       style="fill:#70ca6c;fill-opacity:1"
       id="g5433"
       transform="matrix(0.56523537,0,0,0.56523537,109.57305,126.91732)" />
    <g
       style="fill:#70ca6c;fill-opacity:1"
       id="g5435"
       transform="matrix(0.56523537,0,0,0.56523537,109.57305,126.91732)" />
    <g
       style="fill:#70ca6c;fill-opacity:1"
       id="g5437"
       transform="matrix(0.56523537,0,0,0.56523537,109.57305,126.91732)" />
    <g
       style="fill:#70ca6c;fill-opacity:1"
       id="g5439"
       transform="matrix(0.56523537,0,0,0.56523537,109.57305,126.91732)" />
    <g
       style="fill:#70ca6c;fill-opacity:1"
       id="g5441"
       transform="matrix(0.56523537,0,0,0.56523537,109.57305,126.91732)" />
    <g
       style="fill:#70ca6c;fill-opacity:1"
       id="g5443"
       transform="matrix(0.56523537,0,0,0.56523537,109.57305,126.91732)" />
    <g
       id="g4940"
       transform="matrix(0.09312718,0,0,0.09312718,24.464852,88.552485)"
       inkscape:export-xdpi="28.93684"
       inkscape:export-ydpi="28.93684"
       inkscape:export-filename="/Users/lj/Downloads/markers/icon-CAMPING.png"
       style="fill:#69b1e9;fill-opacity:1">
      <g
         id="g4878"
         style="fill:#69b1e9;fill-opacity:1">
        <path
           id="path4864"
           d="m 376.577,78.33 c -3.041,0 -6.075,0.369 -9.017,1.098 -0.971,0.24 -1.704,1.037 -1.864,2.023 -0.16,0.986 0.286,1.975 1.132,2.508 9.49,5.988 15.156,16.252 15.156,27.455 0,14.953 -10.124,27.9 -24.621,31.488 -0.971,0.238 -1.704,1.035 -1.864,2.023 -0.159,0.986 0.286,1.975 1.132,2.508 5.966,3.764 12.863,5.754 19.945,5.754 20.638,0 37.428,-16.791 37.428,-37.428 10e-4,-20.638 -16.79,-37.429 -37.427,-37.429 z"
           inkscape:connector-curvature="0"
           style="fill:#69b1e9;fill-opacity:1" />
        <g
           id="g4874"
           style="fill:#69b1e9;fill-opacity:1">
          <path
             id="path4866"
             d="m 111.525,171.018 -7.695,-0.844 -4.874,-6.014 c -0.363,-0.449 -0.935,-0.676 -1.505,-0.604 -0.572,0.074 -1.065,0.441 -1.303,0.967 l -3.181,7.057 -7.226,2.777 c -0.539,0.207 -0.932,0.68 -1.038,1.246 -0.106,0.568 0.089,1.15 0.516,1.537 l 5.729,5.207 0.409,7.73 c 0.031,0.576 0.358,1.096 0.864,1.373 0.248,0.135 0.522,0.203 0.797,0.203 0.285,0 0.569,-0.074 0.825,-0.221 l 6.722,-3.84 7.478,2.002 c 0.559,0.148 1.153,-0.002 1.572,-0.398 0.42,-0.396 0.604,-0.982 0.486,-1.547 l -1.574,-7.58 4.213,-6.494 c 0.315,-0.484 0.355,-1.096 0.108,-1.617 -0.249,-0.52 -0.749,-0.876 -1.323,-0.94 z"
             inkscape:connector-curvature="0"
             style="fill:#69b1e9;fill-opacity:1" />
          <g
             id="g4872"
             style="fill:#69b1e9;fill-opacity:1">
            <path
               id="path4868"
               d="m 156.626,123.135 c -0.248,-0.521 -0.748,-0.877 -1.321,-0.939 l -7.695,-0.844 -4.874,-6.016 c -0.364,-0.447 -0.935,-0.674 -1.506,-0.601 -0.572,0.074 -1.066,0.439 -1.303,0.967 l -3.181,7.057 -7.226,2.777 c -0.539,0.207 -0.932,0.678 -1.038,1.246 -0.106,0.566 0.089,1.148 0.516,1.537 l 5.729,5.207 0.408,7.73 c 0.031,0.576 0.358,1.096 0.864,1.371 0.249,0.137 0.523,0.203 0.796,0.203 0.285,0 0.57,-0.072 0.825,-0.219 l 6.722,-3.84 7.478,2.002 c 0.559,0.148 1.153,-0.002 1.572,-0.398 0.419,-0.396 0.604,-0.982 0.486,-1.547 l -1.575,-7.58 4.213,-6.494 c 0.316,-0.484 0.357,-1.097 0.11,-1.619 z"
               inkscape:connector-curvature="0"
               style="fill:#69b1e9;fill-opacity:1" />
            <path
               id="path4870"
               d="m 67.747,122.196 -7.695,-0.844 -4.874,-6.014 c -0.364,-0.449 -0.933,-0.678 -1.506,-0.604 -0.572,0.074 -1.066,0.439 -1.303,0.967 l -3.181,7.057 -7.226,2.777 c -0.539,0.207 -0.932,0.678 -1.039,1.246 -0.106,0.566 0.089,1.148 0.517,1.537 l 5.729,5.207 0.408,7.73 c 0.031,0.576 0.358,1.096 0.865,1.371 0.248,0.137 0.522,0.203 0.796,0.203 0.285,0 0.569,-0.072 0.825,-0.219 l 6.722,-3.84 7.478,2.002 c 0.559,0.148 1.153,-0.002 1.572,-0.398 0.42,-0.396 0.604,-0.982 0.486,-1.547 l -1.575,-7.58 4.214,-6.494 c 0.314,-0.484 0.355,-1.096 0.107,-1.619 -0.247,-0.518 -0.747,-0.876 -1.32,-0.938 z"
               inkscape:connector-curvature="0"
               style="fill:#69b1e9;fill-opacity:1" />
          </g>
        </g>
        <path
           id="path4876"
           d="M 480.021,391.715 H 439.523 L 253.866,130.729 281.602,88.641 c 2.021,-3.066 1.173,-7.193 -1.895,-9.215 -3.067,-2.021 -7.193,-1.174 -9.215,1.895 L 245,120.004 219.507,81.32 c -2.021,-3.068 -6.148,-3.916 -9.215,-1.895 -3.068,2.021 -3.916,6.148 -1.894,9.215 L 236.134,130.728 50.477,391.715 H 9.979 c -5.511,0 -9.979,4.467 -9.979,9.979 0,5.512 4.468,9.978 9.979,9.978 h 470.043 c 5.511,0 9.979,-4.467 9.979,-9.978 -10e-4,-5.512 -4.469,-9.979 -9.98,-9.979 z M 245,261.166 296.694,391.715 H 193.307 Z"
           inkscape:connector-curvature="0"
           style="fill:#69b1e9;fill-opacity:1" />
      </g>
      <g
         id="g4880"
         style="fill:#69b1e9;fill-opacity:1" />
      <g
         id="g4882"
         style="fill:#69b1e9;fill-opacity:1" />
      <g
         id="g4884"
         style="fill:#69b1e9;fill-opacity:1" />
      <g
         id="g4886"
         style="fill:#69b1e9;fill-opacity:1" />
      <g
         id="g4888"
         style="fill:#69b1e9;fill-opacity:1" />
      <g
         id="g4890"
         style="fill:#69b1e9;fill-opacity:1" />
      <g
         id="g4892"
         style="fill:#69b1e9;fill-opacity:1" />
      <g
         id="g4894"
         style="fill:#69b1e9;fill-opacity:1" />
      <g
         id="g4896"
         style="fill:#69b1e9;fill-opacity:1" />
      <g
         id="g4898"
         style="fill:#69b1e9;fill-opacity:1" />
      <g
         id="g4900"
         style="fill:#69b1e9;fill-opacity:1" />
      <g
         id="g4902"
         style="fill:#69b1e9;fill-opacity:1" />
      <g
         id="g4904"
         style="fill:#69b1e9;fill-opacity:1" />
      <g
         id="g4906"
         style="fill:#69b1e9;fill-opacity:1" />
      <g
         id="g4908"
         style="fill:#69b1e9;fill-opacity:1" />
    </g>
  </g>
</svg>
